<svg xmlns="http://www.w3.org/2000/svg" width="73.859" height="72.856" viewBox="0 0 73.859 72.856">
  <g id="Group_100" data-name="Group 100" transform="translate(1 1)">
    <line id="Line_331" data-name="Line 331" x2="71.859" transform="translate(0 65.509)" fill="none" stroke="#2c2c2c" stroke-miterlimit="10" stroke-width="2"/>
    <rect id="Rectangle_147" data-name="Rectangle 147" width="27.78" height="70.856" transform="translate(22.541)" fill="none" stroke="#2c2c2c" stroke-miterlimit="10" stroke-width="2"/>
    <rect id="Rectangle_148" data-name="Rectangle 148" width="21.538" height="50.475" transform="translate(50.322 20.381)" fill="none" stroke="#2c2c2c" stroke-miterlimit="10" stroke-width="2"/>
    <rect id="Rectangle_149" data-name="Rectangle 149" width="22.541" height="57.493" transform="translate(0 13.363)" fill="none" stroke="#2c2c2c" stroke-miterlimit="10" stroke-width="2"/>
    <line id="Line_332" data-name="Line 332" x2="10.071" transform="translate(31.396 11.983)" fill="none" stroke="#2c2c2c" stroke-miterlimit="10" stroke-width="2"/>
    <line id="Line_333" data-name="Line 333" x2="10.071" transform="translate(31.396 17.944)" fill="none" stroke="#2c2c2c" stroke-miterlimit="10" stroke-width="2"/>
    <line id="Line_334" data-name="Line 334" x2="10.071" transform="translate(31.396 23.904)" fill="none" stroke="#2c2c2c" stroke-miterlimit="10" stroke-width="2"/>
    <line id="Line_335" data-name="Line 335" x2="10.071" transform="translate(31.396 29.865)" fill="none" stroke="#2c2c2c" stroke-miterlimit="10" stroke-width="2"/>
    <line id="Line_336" data-name="Line 336" x2="10.071" transform="translate(31.396 35.825)" fill="none" stroke="#2c2c2c" stroke-miterlimit="10" stroke-width="2"/>
    <line id="Line_337" data-name="Line 337" x2="10.071" transform="translate(31.396 41.786)" fill="none" stroke="#2c2c2c" stroke-miterlimit="10" stroke-width="2"/>
    <line id="Line_338" data-name="Line 338" x2="10.071" transform="translate(56.055 28.734)" fill="none" stroke="#2c2c2c" stroke-miterlimit="10" stroke-width="2"/>
    <line id="Line_339" data-name="Line 339" x2="10.071" transform="translate(56.055 34.695)" fill="none" stroke="#2c2c2c" stroke-miterlimit="10" stroke-width="2"/>
    <line id="Line_340" data-name="Line 340" x2="10.071" transform="translate(56.055 40.655)" fill="none" stroke="#2c2c2c" stroke-miterlimit="10" stroke-width="2"/>
    <line id="Line_341" data-name="Line 341" x2="10.071" transform="translate(56.055 46.616)" fill="none" stroke="#2c2c2c" stroke-miterlimit="10" stroke-width="2"/>
    <line id="Line_342" data-name="Line 342" x2="10.071" transform="translate(56.055 52.576)" fill="none" stroke="#2c2c2c" stroke-miterlimit="10" stroke-width="2"/>
    <line id="Line_343" data-name="Line 343" x2="10.071" transform="translate(56.055 58.537)" fill="none" stroke="#2c2c2c" stroke-miterlimit="10" stroke-width="2"/>
    <line id="Line_344" data-name="Line 344" x2="10.071" transform="translate(31.396 47.746)" fill="none" stroke="#2c2c2c" stroke-miterlimit="10" stroke-width="2"/>
    <line id="Line_345" data-name="Line 345" x2="10.071" transform="translate(31.396 53.707)" fill="none" stroke="#2c2c2c" stroke-miterlimit="10" stroke-width="2"/>
    <line id="Line_346" data-name="Line 346" x2="10.071" transform="translate(6.235 22.774)" fill="none" stroke="#2c2c2c" stroke-miterlimit="10" stroke-width="2"/>
    <line id="Line_347" data-name="Line 347" x2="10.071" transform="translate(6.235 28.734)" fill="none" stroke="#2c2c2c" stroke-miterlimit="10" stroke-width="2"/>
    <line id="Line_348" data-name="Line 348" x2="10.071" transform="translate(6.235 34.695)" fill="none" stroke="#2c2c2c" stroke-miterlimit="10" stroke-width="2"/>
    <line id="Line_349" data-name="Line 349" x2="10.071" transform="translate(6.235 40.655)" fill="none" stroke="#2c2c2c" stroke-miterlimit="10" stroke-width="2"/>
    <line id="Line_350" data-name="Line 350" x2="10.071" transform="translate(6.235 46.616)" fill="none" stroke="#2c2c2c" stroke-miterlimit="10" stroke-width="2"/>
    <line id="Line_351" data-name="Line 351" x2="10.071" transform="translate(6.235 52.576)" fill="none" stroke="#2c2c2c" stroke-miterlimit="10" stroke-width="2"/>
    <line id="Line_352" data-name="Line 352" x2="10.071" transform="translate(6.235 58.537)" fill="none" stroke="#2c2c2c" stroke-miterlimit="10" stroke-width="2"/>
  </g>
</svg>
