<svg xmlns="http://www.w3.org/2000/svg" width="47.661" height="83.414" viewBox="0 0 47.661 83.414">
  <g id="Group_101" data-name="Group 101" transform="translate(1 2.414)">
    <line id="Line_353" data-name="Line 353" x2="32.816" transform="translate(0 74.654)" fill="none" stroke="#2c2c2c" stroke-miterlimit="10" stroke-width="2"/>
    <path id="Path_275" data-name="Path 275" d="M3001.7-190.308h25.132l-12.566-50.643Z" transform="translate(-2981.451 260.962)" fill="none" stroke="#2c2c2c" stroke-miterlimit="10" stroke-width="2"/>
    <line id="Line_354" data-name="Line 354" y1="39.024" transform="translate(32.816 40.976)" fill="none" stroke="#2c2c2c" stroke-miterlimit="10" stroke-width="2"/>
    <line id="Line_355" data-name="Line 355" x2="6.283" y2="5.746" transform="translate(26.533 45.333)" fill="none" stroke="#2c2c2c" stroke-miterlimit="10" stroke-width="2"/>
    <line id="Line_356" data-name="Line 356" x1="7.529" y2="8.232" transform="translate(32.816 50.353)" fill="none" stroke="#2c2c2c" stroke-miterlimit="10" stroke-width="2"/>
    <line id="Line_357" data-name="Line 357" x2="9.064" y2="8.29" transform="translate(23.752 56.541)" fill="none" stroke="#2c2c2c" stroke-miterlimit="10" stroke-width="2"/>
    <path id="Path_276" data-name="Path 276" d="M3005.2-204.422v-56.541l-13.26,13.26v27.978l-10.492,10.492v28.27h45.382" transform="translate(-2981.451 260.962)" fill="none" stroke="#2c2c2c" stroke-miterlimit="10" stroke-width="2"/>
    <line id="Line_358" data-name="Line 358" y2="60.777" transform="translate(17.388 6.365)" fill="none" stroke="#2c2c2c" stroke-miterlimit="10" stroke-width="2"/>
    <line id="Line_359" data-name="Line 359" y2="26.998" transform="translate(7.925 53.002)" fill="none" stroke="#2c2c2c" stroke-miterlimit="10" stroke-width="2"/>
  </g>
</svg>
