<svg xmlns="http://www.w3.org/2000/svg" width="40.572" height="82" viewBox="0 0 40.572 82">
  <g id="Group_99" data-name="Group 99" transform="translate(1 1)">
    <line id="Line_327" data-name="Line 327" x2="38.572" transform="translate(0 74.654)" fill="none" stroke="#2c2c2c" stroke-miterlimit="10" stroke-width="2"/>
    <rect id="Rectangle_143" data-name="Rectangle 143" width="38.572" height="69.176" transform="translate(0 10.824)" fill="none" stroke="#2c2c2c" stroke-miterlimit="10" stroke-width="2"/>
    <rect id="Rectangle_144" data-name="Rectangle 144" width="26.53" height="64.043" transform="translate(6.021 15.957)" fill="none" stroke="#2c2c2c" stroke-miterlimit="10" stroke-width="2"/>
    <rect id="Rectangle_145" data-name="Rectangle 145" width="26.53" height="5.412" transform="translate(6.021 5.412)" fill="none" stroke="#2c2c2c" stroke-miterlimit="10" stroke-width="2"/>
    <rect id="Rectangle_146" data-name="Rectangle 146" width="11.559" height="5.412" transform="translate(13.506)" fill="none" stroke="#2c2c2c" stroke-miterlimit="10" stroke-width="2"/>
    <line id="Line_328" data-name="Line 328" y2="64.043" transform="translate(12.654 15.957)" fill="none" stroke="#2c2c2c" stroke-miterlimit="10" stroke-width="2"/>
    <line id="Line_329" data-name="Line 329" y2="64.043" transform="translate(19.286 15.957)" fill="none" stroke="#2c2c2c" stroke-miterlimit="10" stroke-width="2"/>
    <line id="Line_330" data-name="Line 330" y2="64.043" transform="translate(25.918 15.957)" fill="none" stroke="#2c2c2c" stroke-miterlimit="10" stroke-width="2"/>
  </g>
</svg>
