<svg xmlns="http://www.w3.org/2000/svg" width="92.997" height="55.033" viewBox="0 0 92.997 55.033">
  <g id="Group_90" data-name="Group 90" transform="translate(1 1)">
    <line id="Line_229" data-name="Line 229" x2="10.071" transform="translate(8.499 30.432)" fill="none" stroke="#2c2c2c" stroke-miterlimit="10" stroke-width="2"/>
    <line id="Line_230" data-name="Line 230" y2="42.055" transform="translate(33.987 10.979)" fill="none" stroke="#2c2c2c" stroke-miterlimit="10" stroke-width="2"/>
    <line id="Line_231" data-name="Line 231" y2="42.055" transform="translate(40.619 10.979)" fill="none" stroke="#2c2c2c" stroke-miterlimit="10" stroke-width="2"/>
    <line id="Line_232" data-name="Line 232" y2="42.055" transform="translate(47.251 10.979)" fill="none" stroke="#2c2c2c" stroke-miterlimit="10" stroke-width="2"/>
    <rect id="Rectangle_120" data-name="Rectangle 120" width="90.996" height="5.217" transform="translate(0 47.816)" fill="none" stroke="#2c2c2c" stroke-miterlimit="10" stroke-width="2"/>
    <rect id="Rectangle_121" data-name="Rectangle 121" width="27.079" height="53.033" transform="translate(27.079)" fill="none" stroke="#2c2c2c" stroke-miterlimit="10" stroke-width="2"/>
    <rect id="Rectangle_122" data-name="Rectangle 122" width="27.079" height="11.818" transform="translate(0 24.523)" fill="none" stroke="#2c2c2c" stroke-miterlimit="10" stroke-width="2"/>
    <path id="Path_260" data-name="Path 260" d="M2383.94-223.017a36.838,36.838,0,0,1,36.838,36.838" transform="translate(-2329.781 233.996)" fill="none" stroke="#2c2c2c" stroke-miterlimit="10" stroke-width="2"/>
    <path id="Path_261" data-name="Path 261" d="M2356.861-223.017a13.545,13.545,0,0,0-13.545,13.545" transform="translate(-2329.781 233.996)" fill="none" stroke="#2c2c2c" stroke-miterlimit="10" stroke-width="2"/>
  </g>
</svg>
