<svg xmlns="http://www.w3.org/2000/svg" width="71.683" height="57.737" viewBox="0 0 71.683 57.737">
  <g id="Group_93" data-name="Group 93" transform="translate(1 1)">
    <line id="Line_271" data-name="Line 271" x2="69.683" transform="translate(0 50.391)" fill="none" stroke="#2c2c2c" stroke-miterlimit="10" stroke-width="2"/>
    <line id="Line_272" data-name="Line 272" x2="10.071" transform="translate(30.011 28.034)" fill="none" stroke="#2c2c2c" stroke-miterlimit="10" stroke-width="2"/>
    <line id="Line_273" data-name="Line 273" x2="10.071" transform="translate(30.011 36.975)" fill="none" stroke="#2c2c2c" stroke-miterlimit="10" stroke-width="2"/>
    <line id="Line_274" data-name="Line 274" x2="10.071" transform="translate(30.011 45.915)" fill="none" stroke="#2c2c2c" stroke-miterlimit="10" stroke-width="2"/>
    <rect id="Rectangle_134" data-name="Rectangle 134" width="31.804" height="3.771" transform="translate(18.94)" fill="none" stroke="#2c2c2c" stroke-miterlimit="10" stroke-width="2"/>
    <line id="Line_275" data-name="Line 275" y2="27.704" transform="translate(6.926 28.034)" fill="none" stroke="#2c2c2c" stroke-miterlimit="10" stroke-width="2"/>
    <line id="Line_276" data-name="Line 276" y2="27.704" transform="translate(13.559 28.034)" fill="none" stroke="#2c2c2c" stroke-miterlimit="10" stroke-width="2"/>
    <line id="Line_277" data-name="Line 277" y2="27.704" transform="translate(56.125 28.034)" fill="none" stroke="#2c2c2c" stroke-miterlimit="10" stroke-width="2"/>
    <line id="Line_278" data-name="Line 278" y2="27.704" transform="translate(62.757 28.034)" fill="none" stroke="#2c2c2c" stroke-miterlimit="10" stroke-width="2"/>
    <path id="Path_263" data-name="Path 263" d="M2278.284-232.928v51.966H2249.57v-51.966" transform="translate(-2229.085 236.699)" fill="none" stroke="#2c2c2c" stroke-miterlimit="10" stroke-width="2"/>
    <rect id="Rectangle_135" data-name="Rectangle 135" width="20.485" height="33.664" transform="translate(49.198 22.073)" fill="none" stroke="#2c2c2c" stroke-miterlimit="10" stroke-width="2"/>
    <rect id="Rectangle_136" data-name="Rectangle 136" width="20.485" height="33.664" transform="translate(0 22.073)" fill="none" stroke="#2c2c2c" stroke-miterlimit="10" stroke-width="2"/>
    <circle id="Ellipse_12" data-name="Ellipse 12" cx="5.24" cy="5.24" r="5.24" transform="translate(29.601 10.434)" fill="none" stroke="#2c2c2c" stroke-miterlimit="10" stroke-width="2"/>
  </g>
</svg>
