<svg xmlns="http://www.w3.org/2000/svg" width="79.327" height="67.768" viewBox="0 0 79.327 67.768">
  <g id="Group_96" data-name="Group 96" transform="translate(1 1)">
    <line id="Line_298" data-name="Line 298" x2="63.554" transform="translate(8.43 60.422)" fill="none" stroke="#2c2c2c" stroke-miterlimit="10" stroke-width="2"/>
    <line id="Line_299" data-name="Line 299" x2="10.071" transform="translate(15.208 29.607)" fill="none" stroke="#2c2c2c" stroke-miterlimit="10" stroke-width="2"/>
    <line id="Line_300" data-name="Line 300" x2="10.071" transform="translate(15.208 35.568)" fill="none" stroke="#2c2c2c" stroke-miterlimit="10" stroke-width="2"/>
    <line id="Line_301" data-name="Line 301" x2="10.071" transform="translate(15.208 41.528)" fill="none" stroke="#2c2c2c" stroke-miterlimit="10" stroke-width="2"/>
    <line id="Line_302" data-name="Line 302" x2="10.071" transform="translate(15.208 47.489)" fill="none" stroke="#2c2c2c" stroke-miterlimit="10" stroke-width="2"/>
    <line id="Line_303" data-name="Line 303" x2="10.071" transform="translate(15.208 53.449)" fill="none" stroke="#2c2c2c" stroke-miterlimit="10" stroke-width="2"/>
    <line id="Line_304" data-name="Line 304" x2="10.071" transform="translate(35.171 47.489)" fill="none" stroke="#2c2c2c" stroke-miterlimit="10" stroke-width="2"/>
    <line id="Line_305" data-name="Line 305" x2="10.071" transform="translate(55.135 47.489)" fill="none" stroke="#2c2c2c" stroke-miterlimit="10" stroke-width="2"/>
    <line id="Line_306" data-name="Line 306" x2="10.071" transform="translate(35.171 53.449)" fill="none" stroke="#2c2c2c" stroke-miterlimit="10" stroke-width="2"/>
    <line id="Line_307" data-name="Line 307" x2="10.071" transform="translate(55.135 53.449)" fill="none" stroke="#2c2c2c" stroke-miterlimit="10" stroke-width="2"/>
    <path id="Path_265" data-name="Path 265" d="M2763.62-180.962V-229.12h23.81v19.156h39.744v29Z" transform="translate(-2755.19 246.73)" fill="none" stroke="#2c2c2c" stroke-miterlimit="10" stroke-width="2"/>
    <rect id="Rectangle_139" data-name="Rectangle 139" width="45.087" height="3.771" transform="translate(32.24 32.995)" fill="none" stroke="#2c2c2c" stroke-miterlimit="10" stroke-width="2"/>
    <rect id="Rectangle_140" data-name="Rectangle 140" width="31.804" height="3.771" transform="translate(4.341 13.839)" fill="none" stroke="#2c2c2c" stroke-miterlimit="10" stroke-width="2"/>
    <path id="Path_266" data-name="Path 266" d="M2755.19-246.73v65.768h8.43" transform="translate(-2755.19 246.73)" fill="none" stroke="#2c2c2c" stroke-miterlimit="10" stroke-width="2"/>
    <rect id="Rectangle_141" data-name="Rectangle 141" width="10.956" height="7.771" fill="none" stroke="#2c2c2c" stroke-miterlimit="10" stroke-width="2"/>
  </g>
</svg>
