<svg xmlns="http://www.w3.org/2000/svg" width="2499.055" height="371.287" viewBox="0 0 2499.055 371.287">
  <g id="head" transform="translate(-0.473 439.609)">
    <path id="Path_400" data-name="Path 400" d="M734.723-350.382,686.79-336.8v49.988l47.907,16.04,47.91-16.04V-336.8L734.7-322.992" fill="none" stroke="#f9f9f9" stroke-miterlimit="10" stroke-width="1"/>
    <path id="Path_401" data-name="Path 401" d="M694.9-358.512l13.577,47.933h49.988l16.04-47.907-16.04-47.91H708.474l13.812,47.91" fill="none" stroke="#f9f9f9" stroke-miterlimit="10" stroke-width="1"/>
    <path id="Path_402" data-name="Path 402" d="M617.724-245.223,665.657-258.8v-49.988l-47.907-16.04-47.91,16.04V-258.8l47.91-13.812" fill="none" stroke="#f9f9f9" stroke-miterlimit="10" stroke-width="1"/>
    <path id="Path_403" data-name="Path 403" d="M657.551-237.093l-13.577-47.933H593.985l-16.04,47.907,16.04,47.91h49.988l-13.812-47.91" fill="none" stroke="#f9f9f9" stroke-miterlimit="10" stroke-width="1"/>
    <path id="Path_404" data-name="Path 404" d="M702.864-173.782,654.931-160.2v49.988l47.907,16.04,47.91-16.04V-160.2l-47.91,13.812" fill="none" stroke="#f9f9f9" stroke-miterlimit="10" stroke-width="1"/>
    <path id="Path_405" data-name="Path 405" d="M663.037-181.912l13.577,47.933H726.6l16.04-47.907L726.6-229.8H676.615l13.812,47.91" fill="none" stroke="#f9f9f9" stroke-miterlimit="10" stroke-width="1"/>
    <path id="Path_406" data-name="Path 406" d="M568.556-125.643l-13.577-47.933H504.99l-16.04,47.907,16.04,47.91h49.988l-13.812-47.91" fill="none" stroke="#f9f9f9" stroke-miterlimit="10" stroke-width="1"/>
    <path id="Path_407" data-name="Path 407" d="M576.685-165.47l-47.933,13.577V-101.9l47.907,16.04,47.91-16.04v-49.988l-47.91,13.812" fill="none" stroke="#f9f9f9" stroke-miterlimit="10" stroke-width="1"/>
    <path id="Path_408" data-name="Path 408" d="M583.756-391.177l-13.577-47.933H520.191L504.151-391.2l16.04,47.91h49.988L556.367-391.2" fill="none" stroke="#f9f9f9" stroke-miterlimit="10" stroke-width="1"/>
    <path id="Path_409" data-name="Path 409" d="M591.886-431l-47.933,13.577v49.988l47.907,16.04,47.91-16.04v-49.988l-47.91,13.812" fill="none" stroke="#f9f9f9" stroke-miterlimit="10" stroke-width="1"/>
    <path id="Path_410" data-name="Path 410" d="M895-353.343l-13.577-47.933H831.434l-16.04,47.907,16.04,47.91h49.988l-13.812-47.91" fill="none" stroke="#f9f9f9" stroke-miterlimit="10" stroke-width="1"/>
    <path id="Path_411" data-name="Path 411" d="M903.129-393.17,855.2-379.592V-329.6l47.907,16.04,47.91-16.04v-49.988L903.1-365.78" fill="none" stroke="#f9f9f9" stroke-miterlimit="10" stroke-width="1"/>
    <path id="Path_412" data-name="Path 412" d="M909.037-148.456,861.1-134.878V-84.89l47.907,16.04,47.91-16.04v-49.988l-47.91,13.812" fill="none" stroke="#f9f9f9" stroke-miterlimit="10" stroke-width="1"/>
    <path id="Path_413" data-name="Path 413" d="M869.211-156.586l13.577,47.933h49.988l16.04-47.907-16.04-47.91H882.788L896.6-156.56" fill="none" stroke="#f9f9f9" stroke-miterlimit="10" stroke-width="1"/>
    <path id="Path_414" data-name="Path 414" d="M813.761-194.835l47.933-13.577V-258.4l-47.907-16.04-47.91,16.04v49.988l47.91-13.812" fill="none" stroke="#f9f9f9" stroke-miterlimit="10" stroke-width="1"/>
    <path id="Path_415" data-name="Path 415" d="M853.588-186.705l-13.577-47.933H790.023l-16.04,47.907,16.04,47.91h49.988L826.2-186.731" fill="none" stroke="#f9f9f9" stroke-miterlimit="10" stroke-width="1"/>
    <path id="Path_416" data-name="Path 416" d="M953.921-258.038,967.5-210.1h49.988l16.04-47.907-16.04-47.91H967.5l13.812,47.91" fill="none" stroke="#f9f9f9" stroke-miterlimit="10" stroke-width="1"/>
    <path id="Path_417" data-name="Path 417" d="M945.791-218.211l47.933-13.577v-49.988l-47.907-16.04-47.91,16.04v49.988l47.91-13.812" fill="none" stroke="#f9f9f9" stroke-miterlimit="10" stroke-width="1"/>
    <path id="Path_418" data-name="Path 418" d="M246.773-350.382,198.84-336.8v49.988l47.907,16.04,47.91-16.04V-336.8l-47.91,13.812" fill="none" stroke="#f9f9f9" stroke-miterlimit="10" stroke-width="1"/>
    <path id="Path_419" data-name="Path 419" d="M206.946-358.512l13.577,47.933h49.988l16.04-47.907-16.04-47.91H220.524l13.812,47.91" fill="none" stroke="#f9f9f9" stroke-miterlimit="10" stroke-width="1"/>
    <path id="Path_420" data-name="Path 420" d="M129.774-245.223,177.707-258.8v-49.988L129.8-324.828l-47.91,16.04V-258.8l47.91-13.812" fill="none" stroke="#f9f9f9" stroke-miterlimit="10" stroke-width="1"/>
    <path id="Path_421" data-name="Path 421" d="M169.6-237.093l-13.577-47.933H106.036L90-237.118l16.04,47.91h49.988l-13.812-47.91" fill="none" stroke="#f9f9f9" stroke-miterlimit="10" stroke-width="1"/>
    <path id="Path_422" data-name="Path 422" d="M214.914-173.782,166.981-160.2v49.988l47.907,16.04,47.91-16.04V-160.2l-47.91,13.812" fill="none" stroke="#f9f9f9" stroke-miterlimit="10" stroke-width="1"/>
    <path id="Path_423" data-name="Path 423" d="M175.087-181.912l13.577,47.933h49.988l16.04-47.907-16.04-47.91H188.665l13.812,47.91" fill="none" stroke="#f9f9f9" stroke-miterlimit="10" stroke-width="1"/>
    <path id="Path_424" data-name="Path 424" d="M80.606-125.643,67.028-173.576H17.04L1-125.669l16.04,47.91H67.028l-13.812-47.91" fill="none" stroke="#f9f9f9" stroke-miterlimit="10" stroke-width="1"/>
    <path id="Path_425" data-name="Path 425" d="M88.736-165.47,40.8-151.893V-101.9L88.71-85.864l47.91-16.04v-49.988L88.71-138.081" fill="none" stroke="#f9f9f9" stroke-miterlimit="10" stroke-width="1"/>
    <path id="Path_426" data-name="Path 426" d="M95.807-391.177,82.229-439.109H32.241L16.2-391.2l16.04,47.91H82.229L68.417-391.2" fill="none" stroke="#f9f9f9" stroke-miterlimit="10" stroke-width="1"/>
    <path id="Path_427" data-name="Path 427" d="M103.936-431,56-417.426v49.988l47.907,16.04,47.91-16.04v-49.988l-47.91,13.812" fill="none" stroke="#f9f9f9" stroke-miterlimit="10" stroke-width="1"/>
    <path id="Path_428" data-name="Path 428" d="M407.049-353.343l-13.577-47.933H343.484l-16.04,47.907,16.04,47.91h49.988l-13.812-47.91" fill="none" stroke="#f9f9f9" stroke-miterlimit="10" stroke-width="1"/>
    <path id="Path_429" data-name="Path 429" d="M415.179-393.17l-47.933,13.577V-329.6l47.907,16.04,47.91-16.04v-49.988l-47.91,13.812" fill="none" stroke="#f9f9f9" stroke-miterlimit="10" stroke-width="1"/>
    <path id="Path_430" data-name="Path 430" d="M421.088-148.456l-47.933,13.577V-84.89l47.907,16.04,47.91-16.04v-49.988l-47.91,13.812" fill="none" stroke="#f9f9f9" stroke-miterlimit="10" stroke-width="1"/>
    <path id="Path_431" data-name="Path 431" d="M381.261-156.586l13.577,47.933h49.988l16.04-47.907-16.04-47.91H394.838l13.812,47.91" fill="none" stroke="#f9f9f9" stroke-miterlimit="10" stroke-width="1"/>
    <path id="Path_432" data-name="Path 432" d="M325.812-194.835l47.933-13.577V-258.4l-47.907-16.04-47.91,16.04v49.988l47.91-13.812" fill="none" stroke="#f9f9f9" stroke-miterlimit="10" stroke-width="1"/>
    <path id="Path_433" data-name="Path 433" d="M365.638-186.705l-13.577-47.933H302.073l-16.04,47.907,16.04,47.91h49.988l-13.812-47.91" fill="none" stroke="#f9f9f9" stroke-miterlimit="10" stroke-width="1"/>
    <path id="Path_434" data-name="Path 434" d="M465.971-258.038,479.549-210.1h49.988l16.04-47.907-16.04-47.91H479.549l13.812,47.91" fill="none" stroke="#f9f9f9" stroke-miterlimit="10" stroke-width="1"/>
    <path id="Path_435" data-name="Path 435" d="M457.841-218.211l47.933-13.577v-49.988l-47.907-16.04-47.91,16.04v49.988l47.91-13.812" fill="none" stroke="#f9f9f9" stroke-miterlimit="10" stroke-width="1"/>
    <path id="Path_436" data-name="Path 436" d="M1712.246-350.382,1664.313-336.8v49.988l47.907,16.04,47.91-16.04V-336.8l-47.91,13.812" fill="none" stroke="#f9f9f9" stroke-miterlimit="10" stroke-width="1"/>
    <path id="Path_437" data-name="Path 437" d="M1672.419-358.512,1686-310.579h49.988l16.04-47.907-16.04-47.91H1686l13.812,47.91" fill="none" stroke="#f9f9f9" stroke-miterlimit="10" stroke-width="1"/>
    <path id="Path_438" data-name="Path 438" d="M1595.247-245.223,1643.18-258.8v-49.988l-47.907-16.04-47.91,16.04V-258.8l47.91-13.812" fill="none" stroke="#f9f9f9" stroke-miterlimit="10" stroke-width="1"/>
    <path id="Path_439" data-name="Path 439" d="M1635.074-237.093,1621.5-285.026h-49.988l-16.04,47.907,16.04,47.91H1621.5l-13.812-47.91" fill="none" stroke="#f9f9f9" stroke-miterlimit="10" stroke-width="1"/>
    <path id="Path_440" data-name="Path 440" d="M1680.387-173.782,1632.455-160.2v49.988l47.907,16.04,47.91-16.04V-160.2l-47.91,13.812" fill="none" stroke="#f9f9f9" stroke-miterlimit="10" stroke-width="1"/>
    <path id="Path_441" data-name="Path 441" d="M1640.561-181.912l13.577,47.933h49.988l16.04-47.907-16.04-47.91h-49.988l13.812,47.91" fill="none" stroke="#f9f9f9" stroke-miterlimit="10" stroke-width="1"/>
    <path id="Path_442" data-name="Path 442" d="M1546.079-125.643,1532.5-173.576h-49.988l-16.04,47.907,16.04,47.91H1532.5l-13.812-47.91" fill="none" stroke="#f9f9f9" stroke-miterlimit="10" stroke-width="1"/>
    <path id="Path_443" data-name="Path 443" d="M1554.209-165.47l-47.933,13.577V-101.9l47.907,16.04,47.91-16.04v-49.988l-47.91,13.812" fill="none" stroke="#f9f9f9" stroke-miterlimit="10" stroke-width="1"/>
    <path id="Path_444" data-name="Path 444" d="M1561.28-391.177,1547.7-439.109h-49.988l-16.04,47.907,16.04,47.91H1547.7L1533.89-391.2" fill="none" stroke="#f9f9f9" stroke-miterlimit="10" stroke-width="1"/>
    <path id="Path_445" data-name="Path 445" d="M1569.41-431l-47.933,13.577v49.988l47.907,16.04,47.91-16.04v-49.988l-47.91,13.812" fill="none" stroke="#f9f9f9" stroke-miterlimit="10" stroke-width="1"/>
    <path id="Path_446" data-name="Path 446" d="M1872.523-353.343l-13.577-47.933h-49.988l-16.04,47.907,16.04,47.91h49.988l-13.812-47.91" fill="none" stroke="#f9f9f9" stroke-miterlimit="10" stroke-width="1"/>
    <path id="Path_447" data-name="Path 447" d="M1880.652-393.17l-47.933,13.577V-329.6l47.907,16.04,47.91-16.04v-49.988l-47.91,13.812" fill="none" stroke="#f9f9f9" stroke-miterlimit="10" stroke-width="1"/>
    <path id="Path_448" data-name="Path 448" d="M1886.561-148.456l-47.933,13.577V-84.89l47.907,16.04,47.91-16.04v-49.988l-47.91,13.812" fill="none" stroke="#f9f9f9" stroke-miterlimit="10" stroke-width="1"/>
    <path id="Path_449" data-name="Path 449" d="M1846.734-156.586l13.577,47.933H1910.3l16.04-47.907-16.04-47.91h-49.988l13.812,47.91" fill="none" stroke="#f9f9f9" stroke-miterlimit="10" stroke-width="1"/>
    <path id="Path_450" data-name="Path 450" d="M1791.285-194.835l47.933-13.577V-258.4l-47.907-16.04L1743.4-258.4v49.988l47.91-13.812" fill="none" stroke="#f9f9f9" stroke-miterlimit="10" stroke-width="1"/>
    <path id="Path_451" data-name="Path 451" d="M1831.112-186.705l-13.577-47.933h-49.988l-16.04,47.907,16.04,47.91h49.988l-13.812-47.91" fill="none" stroke="#f9f9f9" stroke-miterlimit="10" stroke-width="1"/>
    <path id="Path_452" data-name="Path 452" d="M1931.444-258.038l13.577,47.933h49.988l16.04-47.907-16.04-47.91h-49.988l13.812,47.91" fill="none" stroke="#f9f9f9" stroke-miterlimit="10" stroke-width="1"/>
    <path id="Path_453" data-name="Path 453" d="M1923.314-218.211l47.933-13.577v-49.988l-47.907-16.04-47.91,16.04v49.988l47.91-13.812" fill="none" stroke="#f9f9f9" stroke-miterlimit="10" stroke-width="1"/>
    <path id="Path_454" data-name="Path 454" d="M1224.3-350.382,1176.364-336.8v49.988l47.907,16.04,47.91-16.04V-336.8l-47.91,13.812" fill="none" stroke="#f9f9f9" stroke-miterlimit="10" stroke-width="1"/>
    <path id="Path_455" data-name="Path 455" d="M1184.47-358.512l13.577,47.933h49.988l16.04-47.907-16.04-47.91h-49.988l13.812,47.91" fill="none" stroke="#f9f9f9" stroke-miterlimit="10" stroke-width="1"/>
    <path id="Path_456" data-name="Path 456" d="M1107.3-245.223,1155.23-258.8v-49.988l-47.907-16.04-47.91,16.04V-258.8l47.91-13.812" fill="none" stroke="#f9f9f9" stroke-miterlimit="10" stroke-width="1"/>
    <path id="Path_457" data-name="Path 457" d="M1147.124-237.093l-13.577-47.933h-49.988l-16.04,47.907,16.04,47.91h49.988l-13.812-47.91" fill="none" stroke="#f9f9f9" stroke-miterlimit="10" stroke-width="1"/>
    <path id="Path_458" data-name="Path 458" d="M1192.438-173.782,1144.5-160.2v49.988l47.907,16.04,47.91-16.04V-160.2l-47.91,13.812" fill="none" stroke="#f9f9f9" stroke-miterlimit="10" stroke-width="1"/>
    <path id="Path_459" data-name="Path 459" d="M1152.611-181.912l13.577,47.933h49.988l16.04-47.907-16.04-47.91h-49.988L1180-181.886" fill="none" stroke="#f9f9f9" stroke-miterlimit="10" stroke-width="1"/>
    <path id="Path_460" data-name="Path 460" d="M1058.129-125.643l-13.577-47.933H994.564l-16.04,47.907,16.04,47.91h49.988l-13.812-47.91" fill="none" stroke="#f9f9f9" stroke-miterlimit="10" stroke-width="1"/>
    <path id="Path_461" data-name="Path 461" d="M1066.259-165.47l-47.933,13.577V-101.9l47.907,16.04,47.91-16.04v-49.988l-47.91,13.812" fill="none" stroke="#f9f9f9" stroke-miterlimit="10" stroke-width="1"/>
    <path id="Path_462" data-name="Path 462" d="M1073.33-391.177l-13.577-47.933h-49.988L993.724-391.2l16.04,47.91h49.988L1045.94-391.2" fill="none" stroke="#f9f9f9" stroke-miterlimit="10" stroke-width="1"/>
    <path id="Path_463" data-name="Path 463" d="M1081.46-431l-47.933,13.577v49.988l47.907,16.04,47.91-16.04v-49.988l-47.91,13.812" fill="none" stroke="#f9f9f9" stroke-miterlimit="10" stroke-width="1"/>
    <path id="Path_464" data-name="Path 464" d="M1384.573-353.343,1371-401.276h-49.988l-16.04,47.907,16.04,47.91H1371l-13.812-47.91" fill="none" stroke="#f9f9f9" stroke-miterlimit="10" stroke-width="1"/>
    <path id="Path_465" data-name="Path 465" d="M1392.7-393.17l-47.933,13.577V-329.6l47.907,16.04,47.91-16.04v-49.988l-47.91,13.812" fill="none" stroke="#f9f9f9" stroke-miterlimit="10" stroke-width="1"/>
    <path id="Path_466" data-name="Path 466" d="M1398.611-148.456l-47.933,13.577V-84.89l47.907,16.04,47.91-16.04v-49.988l-47.91,13.812" fill="none" stroke="#f9f9f9" stroke-miterlimit="10" stroke-width="1"/>
    <path id="Path_467" data-name="Path 467" d="M1358.784-156.586l13.577,47.933h49.988l16.04-47.907-16.04-47.91h-49.988l13.812,47.91" fill="none" stroke="#f9f9f9" stroke-miterlimit="10" stroke-width="1"/>
    <path id="Path_468" data-name="Path 468" d="M2200.2-350.382,2152.263-336.8v49.988l47.907,16.04,47.91-16.04V-336.8l-47.91,13.812" fill="none" stroke="#f9f9f9" stroke-miterlimit="10" stroke-width="1"/>
    <path id="Path_469" data-name="Path 469" d="M2160.369-358.512l13.577,47.933h49.988l16.041-47.907-16.041-47.91h-49.988l13.812,47.91" fill="none" stroke="#f9f9f9" stroke-miterlimit="10" stroke-width="1"/>
    <path id="Path_470" data-name="Path 470" d="M2083.2-245.223,2131.13-258.8v-49.988l-47.907-16.04-47.91,16.04V-258.8l47.91-13.812" fill="none" stroke="#f9f9f9" stroke-miterlimit="10" stroke-width="1"/>
    <path id="Path_471" data-name="Path 471" d="M2123.024-237.093l-13.577-47.933h-49.988l-16.04,47.907,16.04,47.91h49.988l-13.812-47.91" fill="none" stroke="#f9f9f9" stroke-miterlimit="10" stroke-width="1"/>
    <path id="Path_472" data-name="Path 472" d="M2168.337-173.782,2120.4-160.2v49.988l47.907,16.04,47.91-16.04V-160.2l-47.91,13.812" fill="none" stroke="#f9f9f9" stroke-miterlimit="10" stroke-width="1"/>
    <path id="Path_473" data-name="Path 473" d="M2128.51-181.912l13.577,47.933h49.988l16.041-47.907-16.041-47.91h-49.988l13.812,47.91" fill="none" stroke="#f9f9f9" stroke-miterlimit="10" stroke-width="1"/>
    <path id="Path_474" data-name="Path 474" d="M2034.029-125.643l-13.577-47.933h-49.988l-16.04,47.907,16.04,47.91h49.988l-13.812-47.91" fill="none" stroke="#f9f9f9" stroke-miterlimit="10" stroke-width="1"/>
    <path id="Path_475" data-name="Path 475" d="M2042.159-165.47l-47.933,13.577V-101.9l47.907,16.04,47.91-16.04v-49.988l-47.91,13.812" fill="none" stroke="#f9f9f9" stroke-miterlimit="10" stroke-width="1"/>
    <path id="Path_476" data-name="Path 476" d="M2049.229-391.177l-13.577-47.933h-49.988l-16.04,47.907,16.04,47.91h49.988L2021.84-391.2" fill="none" stroke="#f9f9f9" stroke-miterlimit="10" stroke-width="1"/>
    <path id="Path_477" data-name="Path 477" d="M2057.359-431l-47.933,13.577v49.988l47.907,16.04,47.91-16.04v-49.988l-47.91,13.812" fill="none" stroke="#f9f9f9" stroke-miterlimit="10" stroke-width="1"/>
    <path id="Path_478" data-name="Path 478" d="M2360.472-353.343,2346.9-401.276h-49.988l-16.04,47.907,16.04,47.91H2346.9l-13.812-47.91" fill="none" stroke="#f9f9f9" stroke-miterlimit="10" stroke-width="1"/>
    <path id="Path_479" data-name="Path 479" d="M2368.6-393.17l-47.933,13.577V-329.6l47.907,16.04,47.91-16.04v-49.988l-47.91,13.812" fill="none" stroke="#f9f9f9" stroke-miterlimit="10" stroke-width="1"/>
    <path id="Path_480" data-name="Path 480" d="M2374.51-148.456l-47.933,13.577V-84.89l47.907,16.04,47.91-16.04v-49.988l-47.91,13.812" fill="none" stroke="#f9f9f9" stroke-miterlimit="10" stroke-width="1"/>
    <path id="Path_481" data-name="Path 481" d="M2334.684-156.586l13.577,47.933h49.988l16.041-47.907-16.041-47.91h-49.988l13.812,47.91" fill="none" stroke="#f9f9f9" stroke-miterlimit="10" stroke-width="1"/>
    <path id="Path_482" data-name="Path 482" d="M2279.235-194.835l47.933-13.577V-258.4l-47.907-16.04-47.91,16.04v49.988l47.91-13.812" fill="none" stroke="#f9f9f9" stroke-miterlimit="10" stroke-width="1"/>
    <path id="Path_483" data-name="Path 483" d="M2319.061-186.705l-13.577-47.933H2255.5l-16.041,47.907,16.041,47.91h49.988l-13.812-47.91" fill="none" stroke="#f9f9f9" stroke-miterlimit="10" stroke-width="1"/>
    <path id="Path_484" data-name="Path 484" d="M2419.394-258.038l13.577,47.933h49.988L2499-258.012l-16.041-47.91h-49.988l13.812,47.91" fill="none" stroke="#f9f9f9" stroke-miterlimit="10" stroke-width="1"/>
    <path id="Path_485" data-name="Path 485" d="M2411.264-218.211l47.933-13.577v-49.988l-47.907-16.04-47.91,16.04v49.988l47.91-13.812" fill="none" stroke="#f9f9f9" stroke-miterlimit="10" stroke-width="1"/>
    <path id="Path_486" data-name="Path 486" d="M1303.335-194.835l47.933-13.577V-258.4l-47.907-16.04-47.91,16.04v49.988l47.91-13.812" fill="none" stroke="#f9f9f9" stroke-miterlimit="10" stroke-width="1"/>
    <path id="Path_487" data-name="Path 487" d="M1343.162-186.705l-13.577-47.933H1279.6l-16.04,47.907,16.04,47.91h49.988l-13.812-47.91" fill="none" stroke="#f9f9f9" stroke-miterlimit="10" stroke-width="1"/>
    <path id="Path_488" data-name="Path 488" d="M1443.495-258.038l13.577,47.933h49.988l16.04-47.907-16.04-47.91h-49.988l13.812,47.91" fill="none" stroke="#f9f9f9" stroke-miterlimit="10" stroke-width="1"/>
    <path id="Path_489" data-name="Path 489" d="M1435.365-218.211l47.933-13.577v-49.988l-47.907-16.04-47.91,16.04v49.988l47.91-13.812" fill="none" stroke="#f9f9f9" stroke-miterlimit="10" stroke-width="1"/>
  </g>
</svg>
