<svg xmlns="http://www.w3.org/2000/svg" width="15.243" height="24.828" viewBox="0 0 15.243 24.828">
  <path id="Path_301" data-name="Path 301" d="M-3950.023,876.719l11-11-11-11" transform="translate(-3936.194 878.133) rotate(180)" fill="none" stroke="#707070" stroke-width="4"/>
</svg>
