<svg xmlns="http://www.w3.org/2000/svg" width="15.243" height="24.828" viewBox="0 0 15.243 24.828">
  <path id="Path_302" data-name="Path 302" d="M-3950.023,876.719l11-11-11-11" transform="translate(3951.437 -853.305)" fill="none" stroke="#f9f9f9" stroke-width="4"/>
</svg>
